<svg xmlns="http://www.w3.org/2000/svg" width="490.688" height="256.143" viewBox="0 0 490.688 256.143">
  <g id="down-arrow" transform="translate(0 -117.272)">
    <path id="Path_571" data-name="Path 571" d="M472.328,120.529,245.213,347.665,18.1,120.529A10.667,10.667,0,0,0,3.015,135.611L237.682,370.278a10.667,10.667,0,0,0,15.083,0L487.432,135.611a10.667,10.667,0,0,0-14.821-15.345c-.089.086-.176.173-.262.262Z" fill="#ffc107"/>
    <path id="Path_572" data-name="Path 572" d="M245.213,373.415a10.663,10.663,0,0,1-7.552-3.115L2.994,135.633A10.667,10.667,0,0,1,18.076,120.55L245.212,347.665,472.327,120.529a10.667,10.667,0,1,1,15.345,14.821c-.086.089-.173.176-.262.262L252.744,370.279A10.672,10.672,0,0,1,245.213,373.415Z" fill="#fff"/>
  </g>
</svg>
